<mxfile host="app.diagrams.net" modified="2024-04-18T01:58:33.991Z" agent="Mozilla/5.0 (Windows NT 10.0; Win64; x64) AppleWebKit/537.36 (KHTML, like Gecko) Chrome/123.0.0.0 Safari/537.36 Edg/123.0.0.0" version="24.2.0" etag="0sheiL9eYVjUIGZPK0qj" type="gitlab">
  <diagram name="Page-1" id="a1lyKelaJwdcuTmRs_fr">
    <mxGraphModel>
      <root>
        <mxCell id="0" />
        <mxCell id="1" parent="0" />
      </root>
    </mxGraphModel>
  </diagram>
</mxfile>
