<mxfile host="app.diagrams.net" modified="2024-01-31T07:07:42.474Z" agent="Mozilla/5.0 (Windows NT 10.0; Win64; x64) AppleWebKit/537.36 (KHTML, like Gecko) Chrome/121.0.0.0 Safari/537.36 Edg/121.0.0.0" etag="sm8NifXUby2naWXLeHH4" version="23.0.2" type="gitlab">
  <diagram name="Page-1" id="GBqkPP6xICKzLbOkY5kS">
    <mxGraphModel dx="1002" dy="631" grid="1" gridSize="10" guides="1" tooltips="1" connect="1" arrows="1" fold="1" page="1" pageScale="1" pageWidth="1169" pageHeight="827" math="0" shadow="0">
      <root>
        <mxCell id="0" />
        <mxCell id="1" parent="0" />
        <mxCell id="IfzxvQzmN-AF2tZXnmGU-4" style="edgeStyle=orthogonalEdgeStyle;rounded=0;orthogonalLoop=1;jettySize=auto;html=1;exitX=0.5;exitY=0.5;exitDx=0;exitDy=0;exitPerimeter=0;entryX=0;entryY=0.5;entryDx=0;entryDy=0;" parent="1" source="dfnhbxraMcFZhbAMqKSp-2" target="dfnhbxraMcFZhbAMqKSp-3" edge="1">
          <mxGeometry relative="1" as="geometry" />
        </mxCell>
        <mxCell id="dfnhbxraMcFZhbAMqKSp-2" value="end user" style="shape=umlActor;verticalLabelPosition=bottom;verticalAlign=top;html=1;outlineConnect=0;" parent="1" vertex="1">
          <mxGeometry x="20" y="130" width="30" height="60" as="geometry" />
        </mxCell>
        <mxCell id="IfzxvQzmN-AF2tZXnmGU-5" style="edgeStyle=orthogonalEdgeStyle;rounded=0;orthogonalLoop=1;jettySize=auto;html=1;exitX=1;exitY=0.5;exitDx=0;exitDy=0;entryX=0;entryY=0.5;entryDx=0;entryDy=0;" parent="1" source="dfnhbxraMcFZhbAMqKSp-3" target="dfnhbxraMcFZhbAMqKSp-4" edge="1">
          <mxGeometry relative="1" as="geometry" />
        </mxCell>
        <mxCell id="dfnhbxraMcFZhbAMqKSp-3" value="Input keywords of his personalization" style="rounded=0;whiteSpace=wrap;html=1;fontSize=15;" parent="1" vertex="1">
          <mxGeometry x="120" y="120" width="170" height="80" as="geometry" />
        </mxCell>
        <mxCell id="IfzxvQzmN-AF2tZXnmGU-6" style="edgeStyle=orthogonalEdgeStyle;rounded=0;orthogonalLoop=1;jettySize=auto;html=1;exitX=1;exitY=0.5;exitDx=0;exitDy=0;" parent="1" source="dfnhbxraMcFZhbAMqKSp-4" target="dfnhbxraMcFZhbAMqKSp-7" edge="1">
          <mxGeometry relative="1" as="geometry" />
        </mxCell>
        <mxCell id="dfnhbxraMcFZhbAMqKSp-4" value="Generate the fully customized theme for PC &amp;amp; Accessories" style="rounded=0;whiteSpace=wrap;html=1;fontSize=15;" parent="1" vertex="1">
          <mxGeometry x="350" y="120" width="200" height="80" as="geometry" />
        </mxCell>
        <mxCell id="dfnhbxraMcFZhbAMqKSp-6" value="* the theme contains below aspects:&lt;br style=&quot;font-size: 15px;&quot;&gt;1. the image to use (could be midjourney)&lt;br style=&quot;font-size: 15px;&quot;&gt;2. the color theme&lt;br style=&quot;font-size: 15px;&quot;&gt;3. where to paint for every product (PC, laptop &amp;amp; accessories)&amp;nbsp;" style="text;html=1;strokeColor=none;fillColor=none;align=left;verticalAlign=middle;whiteSpace=wrap;rounded=0;fontSize=15;" parent="1" vertex="1">
          <mxGeometry x="350" y="220" width="320" height="80" as="geometry" />
        </mxCell>
        <mxCell id="pLGMKpwcp9fcIQRMZCkh-1" style="edgeStyle=orthogonalEdgeStyle;rounded=0;orthogonalLoop=1;jettySize=auto;html=1;exitX=0;exitY=0.5;exitDx=0;exitDy=0;entryX=1;entryY=0.5;entryDx=0;entryDy=0;" edge="1" parent="1" source="dfnhbxraMcFZhbAMqKSp-7" target="dfnhbxraMcFZhbAMqKSp-8">
          <mxGeometry relative="1" as="geometry" />
        </mxCell>
        <mxCell id="dfnhbxraMcFZhbAMqKSp-7" value="Collect the input keywords to train DELL official theme model" style="rounded=0;whiteSpace=wrap;html=1;fontSize=15;" parent="1" vertex="1">
          <mxGeometry x="600" y="374" width="180" height="80" as="geometry" />
        </mxCell>
        <mxCell id="pLGMKpwcp9fcIQRMZCkh-2" style="edgeStyle=orthogonalEdgeStyle;rounded=0;orthogonalLoop=1;jettySize=auto;html=1;exitX=0;exitY=0.5;exitDx=0;exitDy=0;entryX=1;entryY=0.5;entryDx=0;entryDy=0;" edge="1" parent="1" source="dfnhbxraMcFZhbAMqKSp-8" target="dfnhbxraMcFZhbAMqKSp-14">
          <mxGeometry relative="1" as="geometry" />
        </mxCell>
        <mxCell id="dfnhbxraMcFZhbAMqKSp-8" value="End user can select official theme model in PD page in advance" style="rounded=0;whiteSpace=wrap;html=1;fontSize=15;" parent="1" vertex="1">
          <mxGeometry x="355" y="374" width="190" height="80" as="geometry" />
        </mxCell>
        <mxCell id="dfnhbxraMcFZhbAMqKSp-14" value="End can review the products applied the theme in 360 degree viewer" style="rounded=0;whiteSpace=wrap;html=1;fontSize=15;" parent="1" vertex="1">
          <mxGeometry x="90" y="374" width="201" height="80" as="geometry" />
        </mxCell>
        <mxCell id="pLGMKpwcp9fcIQRMZCkh-3" style="edgeStyle=orthogonalEdgeStyle;rounded=0;orthogonalLoop=1;jettySize=auto;html=1;exitX=0;exitY=0.5;exitDx=0;exitDy=0;" edge="1" parent="1" source="dfnhbxraMcFZhbAMqKSp-14">
          <mxGeometry relative="1" as="geometry">
            <mxPoint x="40" y="210" as="targetPoint" />
          </mxGeometry>
        </mxCell>
      </root>
    </mxGraphModel>
  </diagram>
</mxfile>
